{
  "license": "",
  "devDependencies": {
    "@ohos/hypium": "1.0.6"
  },
  "author": "",
  "name": "mqtttest",
  "description": "Please describe the basic information.",
  "main": "",
  "version": "1.0.0",
  "dependencies": {
    "@ohos/mqtt": "^2.0.5-rc.0"
  }
}
